Place,Name,Sex,BirthDate,Age,Country,State,Equipment,Division,BodyweightKg,WeightClassKg,Bench1Kg,Bench2Kg,Bench3Kg,Bench4Kg,Best3BenchKg,TotalKg,Event
1,Alex Lei,M,2004-01-01,18,Australia,VIC,Raw,MT3-R,73.4,75,110,115,-120,,115,115,B
1,Alex Ross,M,2005-02-18,17,Australia,VIC,Raw,MT2-R,74.3,75,110,115,120,122.5,120,120,B
1,Ange Galati,M,1968-03-21,54,Australia,VIC,Multi-ply,MM3-MP,74.9,75,200.5,,,,200.5,200.5,B
1,Angelika Dellios,F,1991-07-03,31,Australia,VIC,Raw,FO-R,104.6,110,45,50,-52.5,,50,50,B
1,Anna Parygina,F,1970-11-01,51,Australia,,Raw,FM3-R,54.9,56,60,63,65,-67.5,65,65,B
1,Arielle Mayer,F,2009-05-16,13,Australia,VIC,Raw,FT1-R,55.5,56,35,38,40,42.5,40,40,B
2,Bradley Villaflor,M,2005-12-15,16,Australia,,Raw,MT2-R,81.7,82.5,100,105,-110,,105,105,B
1,Brendan Silk,M,1994-03-12,28,Australia,VIC,Raw,MO-R,98.8,100,170,185,195,,195,195,B
1,Dylan Milat,M,2005-07-05,17,Australia,VIC,Raw,MT2-R,81.2,82.5,105,110,117.5,,117.5,117.5,B
1,Emily Thistlethwaite,F,2005-04-21,17,Australia,VIC,Raw,FT2-R,57.9,60,33,35,-37.5,,35,35,B
1,George Malliaras,M,1991-03-18,31,Australia,VIC,Raw,MO-R,82.5,82.5,140,152.5,155,157.5,155,155,B
1,Jake Kercher,M,1991-11-08,30,Australia,VIC,Raw,MO-R,127.3,140,200,220,231,-235,231,231,B
1,Janelle Crouch,F,1982-01-16,40,Australia,VIC,Raw,FM1-R,123.7,110+,55,57.5,-60,,57.5,57.5,B
1,Jim Panagiotidis,M,1969-07-05,53,Australia,VIC,Raw,MM3-R,66.6,67.5,95,100,105,-107.5,105,105,B
1,Joe Zollo,M,1957-09-08,65,Australia,VIC,Raw,MM6-R,119,125,125,-130,,,125,125,B
1,Jordan Zollo,M,1992-08-05,30,Australia,,Raw,MO-R,90,90,137.5,142.5,145,,145,145,B
1,Karen Davies,F,1960-12-09,61,Australia,VIC,Raw,FM5-R,79.4,82.5,32.5,35,37.5,-40,37.5,37.5,B
1,Kat Mudie,F,1986-09-05,36,Australia,VIC,Raw,FSM-R,54.2,56,50,52.5,-55,,52.5,52.5,B
1,Linda Stewart,F,1960-01-01,62,Australia,VIC,Raw,FM5-R,62.2,67.5,42.5,45,-47.5,,45,45,B
1,Michael Roccheccioli,M,1981-05-13,41,Australia,VIC,Single-ply,MM1-SP,74.6,75,150,-152.5,152.5,155,152.5,152.5,B
1,Miki Mayer,M,1977-01-24,45,Australia,VIC,Single-ply,MM2-SP,110,110,157.5,162.5,167.5,,167.5,167.5,B
1,Natasha Grimble,F,1997-06-05,25,Australia,VIC,Raw,FO-R,78.7,82.5,-45,45,50,,50,50,B
1,Pam Li,F,1970-03-05,52,Australia,VIC,Raw,FM3-R,51.9,52,50,52.5,55,-57.5,55,55,B
1,Patrick Deligiannis,M,1988-10-24,33,Australia,VIC,Raw,MSM-R,90,90,120,127.5,132.5,,132.5,132.5,B
1,Peta Biggin,F,1970-08-15,52,Australia,VIC,Raw,FM3-R,83.9,90,65,67.5,70,,70,70,B
2,Roko Duzel,M,2003-05-29,19,Australia,VIC,Raw,MT3-R,73.2,75,-95,95,100,,100,100,B
1,Sambo Bird,M,1979-05-22,43,Australia,VIC,Raw,MM1-R,105.1,110,120,127.5,-132.5,,127.5,127.5,B
1,Simon Jarvis,M,1974-05-11,48,Australia,VIC,Raw,MM2-R,90,90,140,-145,-145,,140,140,B