Division,WeightClassKg,Place,Name,Team,BodyweightKg,Best3SquatKg,Best3BenchKg,Best3DeadliftKg,TotalKg,Equipment,Event,Sex
Junior Varsity,59.87,1,Eder Ramirez,Brookshire Royal,58.79,122.47,54.43,136.08,312.98,Single-ply,SBD,M
Junior Varsity,67.13,1,Kevis Reed,Marble Falls,67.04,106.59,77.11,127.01,310.71,Single-ply,SBD,M
Junior Varsity,67.13,2,Nicholas Kanak,Elgin,64.86,102.06,70.31,131.54,303.91,Single-ply,SBD,M
Junior Varsity,67.13,3,Michael Pena,Elgin,64.68,122.47,,133.81,256.28,Single-ply,SD,M
Junior Varsity,74.84,1,Darius Battles,Hempstead,69.58,142.88,117.93,154.22,415.04,Single-ply,SBD,M
Junior Varsity,74.84,2,Allen Zapata,Brookshire Royal,71.67,129.27,72.57,142.88,344.73,Single-ply,SBD,M
Junior Varsity,74.84,3,Matt Madewell,Elgin,71.3,102.06,68.04,142.88,312.98,Single-ply,SBD,M
Junior Varsity,74.84,4,Caleb Chapman,Giddings,68.99,113.4,65.77,115.67,294.84,Single-ply,SBD,M
Junior Varsity,82.1,1,Thomas Ewing,Giddings,81.19,172.37,83.91,158.76,415.04,Single-ply,SBD,M
Junior Varsity,82.1,2,Austin Fisher,Elgin,79.47,133.81,70.31,142.88,347,Single-ply,SBD,M
Junior Varsity,89.81,1,Alex Martinez #3,Giddings,86.27,165.56,83.91,167.83,417.3,Single-ply,SBD,M
Junior Varsity,89.81,2,Chandler Mabray,Marble Falls,88.9,124.74,,127.01,251.74,Single-ply,SD,M
Junior Varsity,99.79,DQ,Zech Roberson,Giddings,89.99,,,,,Single-ply,SD,M
Junior Varsity,99.79,1,Andrew Brandt,Elgin,97.52,165.56,111.13,167.83,444.52,Single-ply,SBD,M
Junior Varsity,99.79,2,Chris Marquez,Giddings,94.44,156.49,81.65,151.95,390.09,Single-ply,SBD,M
Junior Varsity,99.79,3,Lucino Garcia,Hempstead,99.25,127.01,81.65,154.22,362.87,Single-ply,SBD,M
Junior Varsity,99.79,4,Aaron Hillburn,Marble Falls,91.99,113.4,65.77,127.01,306.17,Single-ply,SBD,M
Junior Varsity,99.79,5,Martin Guerra,Hempstead,92.17,145.15,,136.08,281.23,Single-ply,SD,M
Junior Varsity,109.77,1,Carrenza Watson,Hempstead,106.59,181.44,97.52,145.15,424.11,Single-ply,SBD,M
Junior Varsity,124.74,1,Michael Buya,Marble Falls,114.76,145.15,92.99,142.88,381.02,Single-ply,SBD,M
Junior Varsity,124.74+,1,Danny Bricker,Giddings,127.91,129.27,68.04,158.76,356.07,Single-ply,SBD,M
Varsity,51.71,1,Darius Mallard,Navasota,43.09,90.72,52.16,104.33,247.21,Single-ply,SBD,M
Varsity,59.87,1,Tony Sanchez,Giddings,55.84,127.01,86.18,145.15,358.34,Single-ply,SBD,M
Varsity,59.87,2,Brian Vizuet,Navasota,55.88,127.01,83.91,147.42,358.34,Single-ply,SBD,M
Varsity,55.79,3,Stephen Jefferson,Navasota,54.88,108.86,63.5,120.2,292.57,Single-ply,SBD,M
Varsity,55.79,4,Jordan Muse,Bellville,55.34,113.4,,113.4,226.8,Single-ply,SD,M
Varsity,67.13,1,Jacob Satterfield,Giddings,59.92,142.88,83.91,156.49,383.29,Single-ply,SBD,M
Varsity,59.87,2,John Acosta,Navasota,59.42,115.67,77.11,165.56,358.34,Single-ply,SBD,M
Varsity,59.87,3,Valentin Vences,Brookshire Royal,59.06,124.74,79.38,138.35,342.46,Single-ply,SBD,M
Varsity,59.87,4,Kyle McKay,Elgin,56.7,102.06,61.23,120.2,283.5,Single-ply,SBD,M
Varsity,67.13,1,Greg Chelf,Rockdale,66.95,183.7,102.06,181.44,467.2,Single-ply,SBD,M
Varsity,74.84,2,Keaton Kelarek,Rogers,67.36,161.03,102.06,174.63,437.72,Single-ply,SBD,M
Varsity,67.13,3,John Lawless,Rogers,65.5,149.69,77.11,154.22,381.02,Single-ply,SBD,M
Varsity,67.13,4,Tom Lawless,Rogers,64.46,138.35,72.57,154.22,365.14,Single-ply,SBD,M
Varsity,67.13,5,Emilio Olivarez,Elgin,64.41,133.81,77.11,145.15,356.07,Single-ply,SBD,M
Varsity,74.84,6,Jared Cummings,Thrall,67.22,124.74,72.57,158.76,356.07,Single-ply,SBD,M
Varsity,67.13,7,Justin Stautz,Thrall,67.04,108.86,65.77,124.74,299.37,Single-ply,SBD,M
Varsity,74.84,1,Tyler McCoy,Giddings,74.48,204.12,117.93,183.7,505.76,Single-ply,SBD,M
Varsity,74.84,2,Arthur Jackson,Hearne,71.4,151.95,92.99,190.51,435.45,Single-ply,SBD,M
Varsity,74.84,3,Chris Castilleja,Hearne,74.3,163.29,97.52,172.37,433.18,Single-ply,SBD,M
Varsity,74.84,4,Mario Vizuet,Navasota,74.84,156.49,104.33,170.1,430.91,Single-ply,SBD,M
Varsity,74.84,5,Jacob Martinez #11,Hearne,71.85,147.42,88.45,181.44,417.3,Single-ply,SBD,M
Varsity,74.84,6,Michael Fosha,Bellville,74.66,149.69,90.72,174.63,415.04,Single-ply,SBD,M
Varsity,74.84,7,Nico Gutierrez,Rogers,67.68,149.69,81.65,163.29,394.63,Single-ply,SBD,M
Varsity,74.84,8,Ej Rollie,Elgin,72.76,149.69,79.38,165.56,394.63,Single-ply,SBD,M
Varsity,74.84,9,Nick Gonzales,Rockdale,71.3,136.08,83.91,147.42,367.41,Single-ply,SBD,M
Varsity,74.84,10,Daniel Matthews,Bellville,70.85,124.74,,,124.74,Single-ply,S,M
Varsity,82.1,1,Brandon Stautz,Thrall,75.84,204.12,131.54,201.85,537.51,Single-ply,SBD,M
Varsity,82.1,2,Alex Trujillo,Hempstead,81.92,197.31,102.06,204.12,503.49,Single-ply,SBD,M
Varsity,82.1,3,Tyler Gessner,Navasota,81.28,188.24,113.4,174.63,476.27,Single-ply,SBD,M
Varsity,82.1,4,Da'Rick Nolan,Elgin,76.84,183.7,113.4,165.56,462.66,Single-ply,SBD,M
Varsity,82.1,5,Andy Trejo,Bellville,79.56,174.63,97.52,181.44,453.59,Single-ply,SBD,M
Varsity,82.1,6,Brent Haas,Giddings,81.74,163.29,104.33,185.97,453.59,Single-ply,SBD,M
Varsity,82.1,7,Ruben Ortega,Marble Falls,77.56,161.03,102.06,170.1,433.18,Single-ply,SBD,M
Varsity,82.1,8,Kevin Drake,Hearne,81.1,147.42,92.99,185.97,426.38,Single-ply,SBD,M
Varsity,82.1,9,Abraham Sanchez,Brookshire Royal,81.65,149.69,86.18,156.49,392.36,Single-ply,SBD,M
Varsity,82.1,10,Crockett Savage,Marble Falls,78.02,136.08,90.72,149.69,376.48,Single-ply,SBD,M
Varsity,82.1,11,Josh Arraiza,Marble Falls,79.38,142.88,,163.29,306.17,Single-ply,SD,M
Varsity,89.81,1,Colby Wollin,Giddings,85.28,249.48,165.56,254.01,669.05,Single-ply,SBD,M
Varsity,89.81,2,Dallas Glass,Elgin,88.81,215.46,145.15,222.26,582.87,Single-ply,SBD,M
Varsity,89.81,3,Andrew Mitchell,Marble Falls,86.36,215.46,124.74,226.8,566.99,Single-ply,SBD,M
Varsity,89.81,4,Leo Castro,Elgin,86.09,210.92,120.2,219.99,551.11,Single-ply,SBD,M
Varsity,89.81,5,Juan Nunez,Navasota,88.54,226.8,136.08,185.97,548.85,Single-ply,SBD,M
Varsity,89.81,6,Chris Hubnik,Rogers,85.82,201.85,120.2,204.12,526.17,Single-ply,SBD,M
Varsity,89.81,7,Josef Fowler,Rogers,87,163.29,83.91,145.15,392.36,Single-ply,SBD,M
Varsity,89.81,8,Ej Waggy,Rogers,89.36,145.15,90.72,149.69,385.55,Single-ply,SBD,M
Varsity,99.79,9,Chris Reeves,Marble Falls,89.9,136.08,90.72,140.61,367.41,Single-ply,SBD,M
Varsity,89.81,10,Chris Williams #11,Hempstead,86.18,142.88,72.57,136.08,351.53,Single-ply,SBD,M
Varsity,89.81,11,Randall Jones,Elgin,89.27,,102.06,215.46,317.51,Single-ply,BD,M
Varsity,99.79,1,Rodney Brown,Navasota,94.89,226.8,136.08,238.14,601.01,Single-ply,SBD,M
Varsity,99.79,2,Jeremy Jackson,Bellville,93.89,208.65,145.15,226.8,580.6,Single-ply,SBD,M
Varsity,99.79,3,Austin Cash,Elgin,92.53,183.7,113.4,204.12,501.22,Single-ply,SBD,M
Varsity,99.79,4,Hayden Bell,Elgin,90.99,201.85,104.33,185.97,492.15,Single-ply,SBD,M
Varsity,99.79,5,Devan Akin,Giddings,95.89,181.44,99.79,210.92,492.15,Single-ply,SBD,M
Varsity,99.79,6,Michael Juarez,Hearne,98.79,183.7,102.06,167.83,453.59,Single-ply,SBD,M
Varsity,99.79,7,Alex Flores,Hearne,93.53,167.83,99.79,176.9,444.52,Single-ply,SBD,M
Varsity,99.79,8,DaMerios Bluntson,Brookshire Royal,93.98,199.58,,190.51,390.09,Single-ply,SD,M
Varsity,99.79,9,Ryan Jarosek,Thrall,92.53,113.4,56.7,124.74,294.84,Single-ply,SBD,M
Varsity,99.79,10,Marcos Cuevas,Brookshire Royal,92.26,,115.67,161.03,276.69,Single-ply,BD,M
Varsity,99.79,11,Cody Carter,Thrall,98.79,111.13,54.43,108.86,274.42,Single-ply,SBD,M
Varsity,99.79,DQ,Tyler Stubblefield,Giddings,97.3,,,,,Single-ply,SBD,M
Varsity,109.77,1,Morgan Hohle,Giddings,105.28,242.67,133.81,213.19,589.67,Single-ply,SBD,M
Varsity,109.77,2,Michael Brenek,Rogers,101.79,235.87,124.74,208.65,569.26,Single-ply,SBD,M
Varsity,109.77,3,Ronnie Boatwright,Marble Falls,105.96,208.65,120.2,213.19,542.04,Single-ply,SBD,M
Varsity,109.77,4,Cruz Rodríguez,Navasota,102.56,217.72,117.93,204.12,539.77,Single-ply,SBD,M
Varsity,109.77,5,Rodney Schneider,Giddings,107.68,197.31,113.4,208.65,519.36,Single-ply,SBD,M
Varsity,109.77,6,Garrett Ransom,Thrall,103.24,151.95,99.79,163.29,415.04,Single-ply,SBD,M
Varsity,109.77,7,Danny Segura,Brookshire Royal,103.69,,88.45,183.7,272.16,Single-ply,BD,M
Varsity,124.74,1,Scott McDuffie,Navasota,122.2,208.65,149.69,206.38,564.72,Single-ply,SBD,M
Varsity,124.74,2,Clayton Anderson,Elgin,114.21,201.85,122.47,174.63,498.95,Single-ply,SBD,M
Varsity,124.74,3,Ryan Zdroik,Rogers,112.22,188.24,111.13,165.56,464.93,Single-ply,SBD,M
Varsity,124.74,4,Caleb Pittman,Thrall,120.29,151.95,113.4,165.56,430.91,Single-ply,SBD,M
Varsity,124.74,5,Angel Munoz,Thrall,120.38,120.2,86.18,136.08,342.46,Single-ply,SBD,M
Varsity,124.74+,1,Cyril Lemon,Marble Falls,147.05,226.8,115.67,226.8,569.26,Single-ply,SBD,M
Varsity,124.74+,2,Nate Hobbie,Brookshire Royal,134.72,226.8,133.81,183.7,544.31,Single-ply,SBD,M
Varsity,124.74+,3,Johnathan Ramirez,Giddings,135.62,195.04,113.4,199.58,508.02,Single-ply,SBD,M
Varsity,124.74+,4,Jacob Shanks,Elgin,125.92,183.7,97.52,210.92,492.15,Single-ply,SBD,M
Varsity,124.74+,5,LaPear Willrich,Giddings,128.37,192.78,127.01,172.37,492.15,Single-ply,SBD,M
Varsity,124.74+,6,Brian Cain,Thrall,133.81,204.12,113.4,158.76,476.27,Single-ply,SBD,M
Varsity,124.74+,7,Alec Gilliam,Bellville,130.18,147.42,115.67,158.76,421.84,Single-ply,SBD,M
