Place,Name,State,WeightClassKg,BodyweightKg,BirthDate,Age,Squat1Kg,Squat2Kg,Squat3Kg,Best3SquatKg,Bench1Kg,Bench2Kg,Bench3Kg,Best3BenchKg,Deadlift1Kg,Deadlift2Kg,Deadlift3Kg,Best3DeadliftKg,TotalKg,Squat4Kg,Bench4Kg,Event,Equipment,Sex,Division,Tested
1,Jenna McClain,KS,67.5,63.3,,20,80,87.5,-95,87.5,47.5,52.5,-55,52.5,102.5,-110,110,110,250,,,SBD,Raw,F,Juniors 20-23,Yes
1,Alexa Wonka,KS,75,71.35,,17,115,125,132.5,132.5,55,-60,60,60,132.5,142.5,-150,142.5,335,,,SBD,Raw,F,Juniors 16-17,Yes
1,McKenna Weippert,MO,82.5,79.6,,21,152.5,162.5,-170,162.5,77.5,-82.5,-82.5,77.5,175,192.5,-197.5,192.5,432.5,,,SBD,Raw,F,Juniors 20-23,Yes
1,Paige Simmons,KS,110+,126.5,,17,160,170,182.5,182.5,85,95,100,100,155,162.5,-170,162.5,445,,,SBD,Raw,F,Juniors 16-17,Yes
1,Babette Adams,AR,60,59.9,,47,62.5,75,82.5,82.5,40,45,-50.5,45,92.5,100,105,105,232.5,,,SBD,Raw,F,Open,Yes
1,Stephanie Ink,KS,67.5,64.2,,27,112.5,120,130,130,80,85,-87.5,85,147.5,160,170,170,385,,,SBD,Raw,F,Open,Yes
2,Jazmin Ramsey,MO,67.5,67.05,,33,115,-130,-137.5,115,52.5,65,-70,65,130,145,157.5,157.5,337.5,,,SBD,Raw,F,Open,Yes
3,Amber Phelix,KS,67.5,66.7,,33,112.5,-117.5,117.5,117.5,60,-65,65,65,-142.5,142.5,150,150,332.5,,,SBD,Raw,F,Open,Yes
4,Maria Van Driel,SD,67.5,63.45,,24,105,-112.5,-112.5,105,60,-67.5,-67.5,60,120,130,-140,130,295,,,SBD,Raw,F,Open,Yes
5,Kaycee Vosberg,KS,67.5,63.8,,28,85,95,102.5,102.5,50,52.5,-55,52.5,112.5,120,130,130,285,,,SBD,Raw,F,Open,Yes
1,Elizabeth Renter,KS,75,71.85,,44,110,-117.5,117.5,117.5,55,60,-62.5,60,127.5,140,-142.5,140,317.5,,,SBD,Raw,F,Open,Yes
1,Felecia Davis,KS,110+,160.3,,39,110,120,127.5,127.5,85,95,97.5,97.5,155,162.5,172.5,172.5,397.5,,,SBD,Raw,F,Submasters 35-39,Yes
1,Babette Adams,AR,60,59.9,,47,62.5,75,82.5,82.5,40,45,-50.5,45,92.5,100,105,105,232.5,,,SBD,Raw,F,Masters 45-49,Yes
1,Elizabeth Renter,KS,75,71.85,,44,110,-117.5,117.5,117.5,55,60,-62.5,60,127.5,140,-142.5,140,317.5,,,SBD,Raw,F,Masters 40-44,Yes
1,Michelle Cabrera,KS,82.5,78.8,,45,95,102.5,105,105,45,47.5,-50,47.5,145,150,155,155,307.5,,,SBD,Raw,F,Masters 45-49,Yes
1,Peggy Ochoa,KS,82.5,79.55,,61,80,90,95,95,50,55,-60,55,122.5,-132.5,,122.5,272.5,,,SBD,Raw,F,Masters 60-64,Yes
1,Melissa Brown,KS,110,107.2,,44,102.5,115,-122.5,115,47.5,52.5,-57.5,52.5,137.5,145,147.5,147.5,315,,,SBD,Raw,F,Masters 40-44,Yes
1,Adam Powers,MO,60,58.6,,20,-137.5,147.5,-160,147.5,95,-102.5,102.5,102.5,175,187.5,195,195,445,,,SBD,Raw,M,Juniors 20-23,Yes
1,Jonathan Anguiano,MO,67.5,67,,23,165,180,-192.5,180,100,-110,-117.5,100,187.5,-217.5,217.5,217.5,497.5,,,SBD,Raw,M,Juniors 20-23,Yes
1,Ryan Hoyt,KS,82.5,78.2,,19,167.5,175,182.5,182.5,110,117.5,125,125,197.5,207.5,217.5,217.5,525,,,SBD,Raw,M,Juniors 18-19,Yes
1,Trenton Hopkins,KS,82.5,80.6,,21,185,195,205,205,107.5,115,-120,115,235,247.5,-255,247.5,567.5,,,SBD,Raw,M,Juniors 20-23,Yes
1,Decker Starr,KS,90,84.4,,20,212.5,220,227.5,227.5,125,132.5,-137.5,132.5,200,220,232.5,232.5,592.5,,,SBD,Raw,M,Juniors 20-23,Yes
2,Michael Thomann,KS,90,89,,20,160,172.5,185,185,137.5,145,-152.5,145,205,217.5,-232.5,217.5,547.5,,,SBD,Raw,M,Juniors 20-23,Yes
DQ,Ali Viravong,KS,110,107.8,,23,265,-275,-275,265,175,-182.5,-182.5,175,-287.5,-292.5,-292.5,,,,,SBD,Raw,M,Juniors 20-23,Yes
1,Blake Krauss,MO,140,137.4,,23,160,175,185,185,100,-102.5,-105,100,195,212.5,-222.5,212.5,497.5,,,SBD,Raw,M,Juniors 20-23,Yes
1,Nicholas Martinez,KS,60,59.4,,25,155,162.5,170,170,87.5,-97.5,-97.5,87.5,205,-210,,205,462.5,,,SBD,Raw,M,Open,Yes
1,Ralsten Tersol,KS,67.5,66.6,,25,185,195,210,210,107.5,112.5,120,120,172.5,185,-197.5,185,515,,,SBD,Raw,M,Open,Yes
1,Jonathan Hayward,KS,82.5,81,,29,200,210,-217.5,210,142.5,-155,-155,142.5,215,227.5,240,240,592.5,,,SBD,Raw,M,Open,Yes
2,Andrew Nagle,KS,82.5,81,,30,182.5,-187.5,,182.5,110,122.5,-125,122.5,227.5,247.5,-272.5,247.5,552.5,,,SBD,Raw,M,Open,Yes
3,Stav Caplan,KS,82.5,81,,29,205,215,-227.5,215,60,,,60,205,220,-227.5,220,495,,,SBD,Raw,M,Open,Yes
4,Steven Atherton,KS,82.5,80.8,,27,152.5,160,167.5,167.5,110,-112.5,112.5,112.5,185,195,207.5,207.5,487.5,,,SBD,Raw,M,Open,Yes
1,Jake Jenkins,KS,90,88.4,,25,210,217.5,222.5,222.5,147.5,152.5,-160,152.5,217.5,222.5,230,230,605,,,SBD,Raw,M,Open,Yes
2,Mitch Jeffrey,KS,90,87.8,,29,215,225,-237.5,225,-137.5,137.5,-142.5,137.5,210,220,232.5,232.5,595,,,SBD,Raw,M,Open,Yes
3,Tyler Trego,KS,90,89,,26,185,-207.5,-210,185,-142.5,142.5,-152.5,142.5,-227.5,242.5,257.5,257.5,585,,,SBD,Raw,M,Open,Yes
4,Drake Hilyard,KS,90,87,,24,182.5,195,202.5,202.5,130,137.5,142.5,142.5,182.5,190,205,205,550,,,SBD,Raw,M,Open,Yes
5,Brendan Burnett,KS,90,85.6,,22,167.5,175,-182.5,175,85,92.5,,92.5,245,257.5,265,265,532.5,,,SBD,Raw,M,Open,Yes
1,Alex Sheikh,KS,100,97.8,,24,225,237.5,-245,237.5,140,147.5,-155,147.5,-237.5,237.5,-255,237.5,622.5,,,SBD,Raw,M,Open,Yes
2,Connor Mountford,KS,100,94.6,,25,187.5,195,205,205,135,-142.5,142.5,142.5,217.5,227.5,-235,227.5,575,,,SBD,Raw,M,Open,Yes
3,Ben Velasco,MO,100,99.8,,26,220,-227.5,,220,110,122.5,-132.5,122.5,192.5,207.5,-225,207.5,550,,,SBD,Raw,M,Open,Yes
4,Aiden Coolidge,KS,100,94,,24,170,180,190,190,112.5,120,-127.5,120,180,195,-205,195,505,,,SBD,Raw,M,Open,Yes
1,Johnny Chanthalangsy,KS,110,107,,32,217.5,222.5,-230,222.5,147.5,-152.5,-152.5,147.5,240,250,-265,250,620,,,SBD,Raw,M,Open,Yes
DQ,Ali Viravong,KS,110,107.8,,23,265,-275,-275,265,175,-182.5,-182.5,175,-287.5,-292.5,-292.5,,,,,SBD,Raw,M,Open,Yes
1,Tyler Reikofski,NE,125,113.2,,24,235,252.5,265,265,142.5,152.5,160,160,255,272.5,282.5,282.5,707.5,,,SBD,Raw,M,Open,Yes
1,Austin Van Norman,MO,140,127.4,,28,272.5,305,-312.5,305,190,-210,-210,190,275,297.5,317.5,317.5,812.5,,,SBD,Raw,M,Open,Yes
2,Kirk Crabtree,KS,140,136.6,,52,120,-125,-125,120,90,95,97.5,97.5,135,145,155,155,372.5,,,SBD,Raw,M,Open,Yes
1,Willam Bradley,MO,140+,192.5,,35,,,,,187.5,195,-200,195,,,,,195,,,B,Raw,M,Open,Yes
1,Bennett McKinnon,KS,110,107.2,,35,212.5,220,230,230,-152.5,160,-170,160,-250,257.5,272.5,272.5,662.5,,,SBD,Raw,M,Submasters 35-39,Yes
1,Willam Bradley,MO,140+,192.5,,35,,,,,187.5,195,-200,195,,,,,195,,,B,Raw,M,Submasters 35-39,Yes
1,Monte Lofing,NE,67.5,67.4,,64,167.5,180,187.5,187.5,92.5,100.5,105,105,172.5,182.5,192.5,192.5,485,188.5,106,SBD,Raw,M,Masters 60-64,Yes
1,Daniel Durant,KS,100,91,,28,210,227.5,-235,227.5,125,137.5,-142.5,137.5,217.5,235,-242.5,235,600,,,SBD,Wraps,M,Open,Yes
2,Erik Dobbins,KS,100,98.2,,33,197.5,205,-210,205,140,-142.5,142.5,142.5,237.5,-252.5,-252.5,237.5,585,,,SBD,Wraps,M,Open,Yes
1,Karen Gehle,KS,75,70.85,,63,,,,,32.5,37.5,-42.5,37.5,,,,,37.5,,,B,Raw,F,Masters 60-64,Yes
1,Micah Wiedner,MO,90,87.6,,24,,,,,-180,180,187.5,187.5,,,,,187.5,,,B,Raw,M,Open,Yes
1,Karen Gehle,KS,75,70.85,,63,,,,,,,,,85,95,100,100,100,,,D,Raw,F,Masters 60-64,Yes
1,Daniel Durant,KS,100,91,,28,,,,,,,,,217.5,235,-242.5,235,235,,,D,Raw,M,Open,Yes
